hany1/hany1.sim/sim_1/behav/xsim/Micro_Computer.vcd
$date
   Wed May  8 22:53:56 2024
$end
$version
  2018.2
$end
$timescale
  1ps
$end
$scope module Micro_Computer_tb $end
$var reg 1 ! clk $end
$var wire 8 " AC_out [7:0] $end
$var wire 8 # DR_out [7:0] $end
$var wire 8 $ IR_out [7:0] $end
$var wire 8 % ram_out [7:0] $end
$var wire 4 & PC_out [3:0] $end
$var wire 4 ' AR_out [3:0] $end
$var wire 1 ( E_out $end
$var wire 8 ) sc_out [7:0] $end
$scope module uut $end
$var wire 1 * clk $end
$var wire 8 + T [7:0] $end
$var wire 8 , D [7:0] $end
$var wire 8 - B [7:0] $end
$var wire 1 . LDAC $end
$var wire 1 / CLRAC $end
$var wire 1 0 INRAC $end
$var wire 1 1 LDAR $end
$var wire 1 2 INRAR $end
$var wire 1 3 LDDR $end
$var wire 1 4 INRDR $end
$var wire 1 5 LDIR $end
$var wire 1 6 INRPC $end
$var wire 1 7 CLRSC $end
$var wire 1 8 LDPC $end
$var wire 1 9 read $end
$var wire 1 : write $end
$var wire 3 ; s [2:0] $end
$var wire 1 < AND $end
$var wire 1 = ADD $end
$var wire 1 > LDA $end
$var wire 1 ? STA $end
$var wire 1 @ BUN $end
$var wire 1 A BSA $end
$var wire 1 B ISZ $end
$var wire 1 C CMA $end
$var wire 1 D CLA $end
$var wire 1 E CIL $end
$var wire 1 F CIR $end
$var wire 3 G count [2:0] $end
$var wire 8 H ACData [7:0] $end
$var wire 8 I OUT [7:0] $end
$var wire 8 " AC [7:0] $end
$var wire 8 # DR [7:0] $end
$var wire 8 $ IR [7:0] $end
$var wire 8 % ram [7:0] $end
$var wire 4 & PC [3:0] $end
$var wire 4 ' AR [3:0] $end
$var reg 1 J cin $end
$var wire 1 ( E $end
$var wire 8 ) sc [7:0] $end
$var wire 8 K ac_wire [7:0] $end
$var wire 8 L dr_wire [7:0] $end
$var wire 8 M ir_wire [7:0] $end
$var wire 8 N ram_wire [7:0] $end
$var wire 1 O e_wire $end
$var wire 4 P pc_wire [3:0] $end
$var wire 4 Q ar_wire [3:0] $end
$scope module counter $end
$var wire 1 * clk $end
$var wire 1 7 reset $end
$var reg 3 R count [2:0] $end
$upscope $end
$scope module decoder $end
$var wire 3 G A [2:0] $end
$var reg 8 S Y [7:0] $end
$upscope $end
$scope module ir $end
$var wire 1 5 LD $end
$var wire 1 * clk $end
$var wire 8 I in [7:0] $end
$var reg 8 T out [7:0] $end
$upscope $end
$scope module d2 $end
$var wire 3 U A [2:0] $end
$var reg 8 V Y [7:0] $end
$upscope $end
$scope module CU $end
$var wire 8 + T [7:0] $end
$var wire 8 , D [7:0] $end
$var wire 1 W I $end
$var wire 8 M B [7:0] $end
$var wire 1 . LDAC $end
$var wire 1 / CLRAC $end
$var wire 1 0 INRAC $end
$var wire 1 1 LDAR $end
$var wire 1 2 INRAR $end
$var wire 1 9 ReadRam $end
$var wire 1 : WriteRam $end
$var wire 1 3 LDDR $end
$var wire 1 4 INRDR $end
$var wire 1 5 LDIR $end
$var wire 1 6 INRPC $end
$var wire 1 7 CLRSC $end
$var wire 1 8 LDPC $end
$var wire 3 ; s [0:2] $end
$var wire 1 < AND $end
$var wire 1 = ADD $end
$var wire 1 > LDA $end
$var wire 1 ? STA $end
$var wire 1 @ BUN $end
$var wire 1 A BSA $end
$var wire 1 B ISZ $end
$var wire 1 C CMA $end
$var wire 1 D CLA $end
$var wire 1 E CIL $end
$var wire 1 F CIR $end
$var wire 8 X x [7:0] $end
$scope module ac $end
$var wire 8 + T [7:0] $end
$var wire 8 , D [7:0] $end
$var wire 1 W I $end
$var wire 8 M B [7:0] $end
$var wire 1 . LD $end
$var wire 1 / CLR $end
$var wire 1 0 INR $end
$var wire 1 Y r $end
$upscope $end
$scope module ar $end
$var wire 1 W I $end
$var wire 8 + T [7:0] $end
$var wire 8 , D [7:0] $end
$var wire 1 1 LD $end
$var wire 1 2 INR $end
$var wire 1 Z D7n $end
$var wire 1 [ Rn $end
$var wire 1 \ a1 $end
$var wire 1 ] a2 $end
$var wire 1 ^ a3 $end
$upscope $end
$scope module dr $end
$var wire 8 + T [7:0] $end
$var wire 8 , D [7:0] $end
$var wire 1 3 Load $end
$var wire 1 4 INR $end
$upscope $end
$scope module ir $end
$var wire 8 + T [7:0] $end
$var wire 1 5 load $end
$upscope $end
$scope module pc $end
$var wire 8 + T [7:0] $end
$var wire 8 , D [7:0] $end
$var wire 1 8 LD $end
$var wire 1 6 INR $end
$upscope $end
$scope module ram $end
$var wire 1 W I $end
$var wire 8 + T [7:0] $end
$var wire 8 , D [7:0] $end
$var wire 1 : Write $end
$var wire 1 9 Read $end
$upscope $end
$scope module sc $end
$var wire 1 W I $end
$var wire 8 + T [7:0] $end
$var wire 8 , D [7:0] $end
$var wire 1 7 CLR $end
$var wire 1 _ r $end
$upscope $end
$scope module commanBus $end
$var wire 1 W I $end
$var wire 8 + T [7:0] $end
$var wire 8 , D [7:0] $end
$var wire 8 X x [7:0] $end
$upscope $end
$scope module sss $end
$var wire 8 X x [7:0] $end
$var wire 3 ; s [2:0] $end
$upscope $end
$scope module instructionControlSignal $end
$var wire 1 W I $end
$var wire 8 + T [7:0] $end
$var wire 8 , D [7:0] $end
$var wire 8 M B [7:0] $end
$var wire 1 < AND $end
$var wire 1 = ADD $end
$var wire 1 > LDA $end
$var wire 1 ? STA $end
$var wire 1 @ BUN $end
$var wire 1 A BSA $end
$var wire 1 B ISZ $end
$var wire 1 C CMA $end
$var wire 1 D CLA $end
$var wire 1 E CIL $end
$var wire 1 F CIR $end
$var wire 1 ` r $end
$upscope $end
$upscope $end
$scope module CommonBus $end
$var wire 8 L DR [7:0] $end
$var wire 8 K AC [7:0] $end
$var wire 8 M IR [7:0] $end
$var wire 8 N RAM [7:0] $end
$var wire 4 Q AR [3:0] $end
$var wire 4 P PC [3:0] $end
$var wire 3 ; S [2:0] $end
$var wire 8 I OUT [7:0] $end
$scope module mux_8to1 $end
$var wire 8 a d0 [7:0] $end
$var wire 8 L d3 [7:0] $end
$var wire 8 K d4 [7:0] $end
$var wire 8 M d5 [7:0] $end
$var wire 8 b d6 [7:0] $end
$var wire 8 N d7 [7:0] $end
$var wire 3 ; sel [2:0] $end
$var wire 4 P d2 [3:0] $end
$var wire 4 Q d1 [3:0] $end
$var reg 8 c out [7:0] $end
$upscope $end
$upscope $end
$scope module ac $end
$var wire 1 0 INR $end
$var wire 1 . LD $end
$var wire 1 * clk $end
$var wire 1 / CLR $end
$var wire 8 H in [7:0] $end
$var reg 8 d out [7:0] $end
$upscope $end
$scope module ar $end
$var wire 1 2 INR $end
$var wire 1 1 LD $end
$var wire 1 * clk $end
$var wire 4 e in [3:0] $end
$var reg 4 f out [3:0] $end
$upscope $end
$scope module U1 $end
$var wire 1 < AND $end
$var wire 1 = ADD $end
$var wire 1 > LDA $end
$var wire 1 C CMA $end
$var wire 1 F CIR $end
$var wire 1 E CIL $end
$var wire 8 K AC [7:0] $end
$var wire 8 L DR [7:0] $end
$var wire 1 g CIN $end
$var reg 1 h E $end
$var reg 8 i ACData [7:0] $end
$upscope $end
$scope module dr $end
$var wire 1 4 INR $end
$var wire 1 3 LD $end
$var wire 1 * clk $end
$var wire 8 I in [7:0] $end
$var reg 8 j out [7:0] $end
$upscope $end
$scope module pc $end
$var wire 1 6 INR $end
$var wire 1 * clk $end
$var wire 1 8 LD $end
$var wire 4 e in [3:0] $end
$var reg 4 k out [3:0] $end
$upscope $end
$scope module RAM $end
$var wire 1 * clk $end
$var wire 1 9 read $end
$var wire 1 : write $end
$var wire 4 Q addr [3:0] $end
$var wire 8 I data_in [7:0] $end
$var reg 8 l data_out [7:0] $end
$upscope $end
$upscope $end
$upscope $end
$enddefinitions $end
#0
$dumpvars
0!
b10001 "
b0 #
b0 $
bx %
b0 &
b0 '
1(
b1 )
0*
b1 +
b1 ,
bz -
0.
0/
z0
11
02
03
04
05
06
07
08
09
0:
b10 ;
0<
0=
0>
0?
0@
0A
0B
0C
0D
0E
0F
b0 G
b10001 H
b0 I
0J
b10001 K
b0 L
b0 M
bx N
1O
b0 P
b0 Q
b0 R
b1 S
b0 T
b0 U
b1 V
0W
b100 X
0Y
1Z
z[
z\
z]
z^
0_
0`
b0 a
b0 b
b0 c
b10001 d
b0 e
b0 f
0g
1h
b10001 i
b0 j
b0 k
bx l
$end
#5000
1!
b1100 %
b10 )
1*
b10 +
01
15
16
19
b111 ;
b1 G
b1100 I
b1100 N
b1 R
b10 S
b10000000 X
b1100 c
b1100 e
b1100 l
#10000
0!
0*
#15000
1!
b1100 $
b1 &
b100 )
1*
b100 +
11
05
06
09
b101 ;
0C
b10 G
b1100 M
b1 P
b10 R
b100 S
b1100 T
b0 U
0W
b100000 X
b1100 c
b1 k
#20000
0!
0*
#25000
1!
b1100 '
b1000 )
1*
b1000 +
01
b0 ;
b11 G
b0 I
b1100 Q
b11 R
b1000 S
b0 X
0Y
0_
0`
b0 c
b0 e
b1100 f
#30000
0!
0*
#35000
1!
b11100 %
b10000 )
1*
b10000 +
13
19
0:
b111 ;
b100 G
b11100 I
b11100 N
b100 R
b10000 S
b10000000 X
0Y
0_
0`
b11100 c
b1100 e
b11100 l
#40000
0!
0*
#45000
1!
b11100 #
b100000 )
1*
b100000 +
1.
03
17
09
0:
b0 ;
1<
0=
0>
b101 G
b10000 H
b0 I
b11100 L
b101 R
b100000 S
b0 X
b0 c
b0 e
b10000 i
b11100 j
#50000
0!
0*
#55000
1!
b10000 "
b1 )
1*
b1 +
0.
11
07
b10 ;
0<
0=
0>
b0 G
b1 I
b10000 K
b0 R
b1 S
b100 X
b1 c
b10000 d
b1 e
b10000 i
#60000
0!
0*
#65000
1!
b11010 %
b1 '
b10 )
1*
b10 +
01
15
16
19
b111 ;
b1 G
b11010 I
b11010 N
b1 Q
b1 R
b10 S
b10000000 X
b11010 c
b1010 e
b1 f
b11010 l
#70000
0!
0*
#75000
1!
b11010 $
b10 &
b100 )
1*
b100 +
b10 ,
11
05
06
09
b101 ;
0<
0=
0C
0F
b10 G
b11010 M
b10 P
b10 R
b100 S
b11010 T
b1 U
b10 V
0W
b100000 X
b11010 c
b10 k
#80000
0!
0*
#85000
1!
b1010 '
b1000 )
1*
b1000 +
01
b0 ;
b11 G
b0 I
b1010 Q
b11 R
b1000 S
b0 X
0Y
0_
0`
b0 c
b0 e
b1010 f
#90000
0!
0*
#95000
1!
b11011 %
b10000 )
1*
b10000 +
13
19
0:
b111 ;
b100 G
b11011 I
b11011 N
b100 R
b10000 S
b10000000 X
0Y
0_
0`
b11011 c
b1011 e
b11011 l
#100000
0!
0*
#105000
1!
b11011 #
0(
b100000 )
1*
b100000 +
1.
03
17
09
0:
b0 ;
0<
1=
0>
b101 G
b101011 H
b0 I
b11011 L
0O
b101 R
b100000 S
b0 X
b0 c
b0 e
0h
b101011 i
b11011 j
#110000
0!
0*
#115000
1!
b101011 "
b1 )
1*
b1 +
0.
11
07
b10 ;
0<
0=
0>
b0 G
b101011 H
b10 I
b101011 K
b0 R
b1 S
b100 X
b10 c
b101011 d
b10 e
0h
b101011 i
#120000
0!
0*
#125000
1!
b100110 %
b10 '
b10 )
1*
b10 +
01
15
16
19
b111 ;
b1 G
b100110 I
b100110 N
b10 Q
b1 R
b10 S
b10000000 X
b100110 c
b110 e
b10 f
b100110 l
#130000
0!
0*
#135000
1!
b100110 $
b11 &
b100 )
1*
b100 +
b100 ,
11
05
06
09
b101 ;
0=
0>
0C
b10 G
b100110 M
b11 P
b10 R
b100 S
b100110 T
b10 U
b100 V
0W
b100000 X
b100110 c
b11 k
#140000
0!
0*
#145000
1!
b110 '
b1000 )
1*
b1000 +
01
b0 ;
b11 G
b0 I
b110 Q
b11 R
b1000 S
b0 X
0Y
0_
0`
b0 c
b0 e
b110 f
#150000
0!
0*
#155000
1!
b1110001 %
b10000 )
1*
b10000 +
13
19
0:
b111 ;
b100 G
b1110001 I
b1110001 N
b100 R
b10000 S
b10000000 X
0Y
0_
0`
b1110001 c
b1 e
b1110001 l
#160000
0!
0*
#165000
1!
b1110001 #
b100000 )
1*
b100000 +
1.
03
17
09
0:
b0 ;
0<
0=
1>
b101 G
b1110001 H
b0 I
b1110001 L
b101 R
b100000 S
b0 X
b0 c
b0 e
b1110001 i
b1110001 j
#170000
0!
0*
#175000
1!
b1110001 "
b1 )
1*
b1 +
0.
11
07
b10 ;
0<
0=
0>
b0 G
b11 I
b1110001 K
b0 R
b1 S
b100 X
b11 c
b1110001 d
b11 e
b1110001 i
#180000
0!
0*
#185000
1!
b1111000 %
b11 '
b10 )
1*
b10 +
01
15
16
19
b111 ;
b1 G
b1111000 I
b1111000 N
b11 Q
b1 R
b10 S
b10000000 X
b1111000 c
b1000 e
b11 f
b1111000 l
#190000
0!
0*
#195000
1!
b1111000 $
b100 &
b100 )
1*
b100 +
b10000000 ,
11
05
06
09
b101 ;
0>
0C
0F
b10 G
b1111000 M
b100 P
b10 R
b100 S
b1111000 T
b111 U
b10000000 V
0W
b100000 X
0Y
0Z
0_
0`
b1111000 c
b100 k
#200000
0!
0*
#205000
1!
b1000 '
b1000 )
1*
b1000 +
1/
01
17
b0 ;
0C
1D
0E
0F
b11 G
b0 I
b1000 Q
b11 R
b1000 S
b0 X
1Y
1_
1`
b0 c
b0 e
b1000 f
#210000
0!
0*
#215000
1!
b0 "
b1 )
1*
b1 +
0/
11
07
b10 ;
0C
0D
0E
0F
b0 G
b0 H
b100 I
b0 K
b0 R
b1 S
b100 X
0Y
0_
0`
b100 c
b0 d
b100 e
b0 i
#220000
0!
0*
#225000
1!
b1110100 %
b100 '
b10 )
1*
b10 +
01
15
16
19
b111 ;
b1 G
b1110100 I
b1110100 N
b100 Q
b1 R
b10 S
b10000000 X
b1110100 c
b100 e
b100 f
b1110100 l
#230000
0!
0*
#235000
1!
b1110100 $
b101 &
b100 )
1*
b100 +
11
05
06
09
b101 ;
0C
b10 G
b1110100 M
b101 P
b10 R
b100 S
b1110100 T
b111 U
0W
b100000 X
b1110100 c
b101 k
#240000
0!
0*
#245000
1!
b1000 )
1*
b1000 +
1.
01
17
b0 ;
1C
0E
0F
b11 G
b11111111 H
b0 I
b11 R
b1000 S
b0 X
1Y
1_
1`
b0 c
b0 e
b11111111 i
#250000
0!
0*
#255000
1!
b11111111 "
b1 )
1*
b1 +
0.
11
07
b10 ;
0C
0E
0F
b0 G
b11111111 H
b101 I
b11111111 K
b0 R
b1 S
b100 X
0Y
0_
0`
b101 c
b11111111 d
b101 e
b11111111 i
#260000
0!
0*
#265000
1!
b1110010 %
b101 '
b10 )
1*
b10 +
01
15
16
19
b111 ;
b1 G
b1110010 I
b1110010 N
b101 Q
b1 R
b10 S
b10000000 X
b1110010 c
b10 e
b101 f
b1110010 l
#270000
0!
0*
#275000
1!
b1110010 $
b110 &
b100 )
1*
b100 +
11
05
06
09
b101 ;
0C
0F
b10 G
b1110010 M
b110 P
b10 R
b100 S
b1110010 T
b111 U
0W
b100000 X
b1110010 c
b110 k
#280000
0!
0*
#285000
1!
b10 '
1(
b1000 )
1*
b1000 +
1.
01
17
b0 ;
0C
0E
1F
b11 G
b1111111 H
b0 I
1O
b10 Q
b11 R
b1000 S
b0 X
1Y
1_
1`
b0 c
b0 e
b10 f
1h
b1111111 i
#290000
0!
0*
#295000
1!
b1111111 "
b1 )
1*
b1 +
0.
11
07
b10 ;
0C
0E
0F
b0 G
b1111111 H
b110 I
b1111111 K
b0 R
b1 S
b100 X
0Y
0_
0`
b110 c
b1111111 d
b110 e
1h
b1111111 i
#300000
0!
0*
#305000
1!
b1110001 %
b110 '
b10 )
1*
b10 +
01
15
16
19
b111 ;
b1 G
b1110001 I
b1110001 N
b110 Q
b1 R
b10 S
b10000000 X
b1110001 c
b1 e
b110 f
b1110001 l
#310000
0!
0*
#315000
1!
b1110001 $
b111 &
b100 )
1*
b100 +
11
05
06
09
b101 ;
0E
0F
b10 G
b1110001 M
b111 P
b10 R
b100 S
b1110001 T
b111 U
0W
b100000 X
b1110001 c
b111 k
#320000
0!
0*
#325000
1!
b1 '
b1000 )
1*
b1000 +
1.
01
17
b0 ;
0C
1E
0F
b11 G
b11111111 H
b0 I
b1 Q
b11 R
b1000 S
b0 X
1Y
1_
1`
b0 c
b0 e
b1 f
1h
b11111111 i
#330000
0!
0*
#335000
1!
b11111111 "
b1 )
1*
b1 +
0.
11
07
b10 ;
0C
0E
0F
b0 G
b111 I
b11111111 K
b0 R
b1 S
b100 X
0Y
0_
0`
b111 c
b11111111 d
b111 e
1h
b11111111 i
#340000
0!
0*
#345000
1!
b111 %
b111 '
b10 )
1*
b10 +
01
15
16
19
b111 ;
b1 G
b111 I
b111 N
b111 Q
b1 R
b10 S
b10000000 X
b111 c
b111 e
b111 f
b111 l
#350000
0!
0*
#355000
1!
b111 $
b1000 &
b100 )
1*
b100 +
b1 ,
11
05
06
09
b101 ;
0<
0C
0F
b10 G
b111 M
b1000 P
b10 R
b100 S
b111 T
b0 U
b1 V
0W
b100000 X
0Y
1Z
0_
0`
b111 c
b1000 k
#360000
0!
0*
#365000
1!
b1000 )
1*
b1000 +
01
b0 ;
b11 G
b0 I
b11 R
b1000 S
b0 X
0Y
0_
0`
b0 c
b0 e
#370000
0!
0*
#375000
1!
b10000 )
1*
b10000 +
13
19
0:
b111 ;
b100 G
b111 I
b100 R
b10000 S
b10000000 X
0Y
0_
0`
b111 c
b111 e
b111 l
#380000
0!
0*
#385000
1!
b111 #
b100000 )
1*
b100000 +
1.
03
17
09
0:
b0 ;
1<
0=
0>
b101 G
b111 H
b0 I
b111 L
b101 R
b100000 S
b0 X
b0 c
b0 e
b111 i
b111 j
#390000
0!
0*
#395000
1!
b111 "
b1 )
1*
b1 +
0.
11
07
b10 ;
0<
0=
0>
b0 G
b1000 I
b111 K
b0 R
b1 S
b100 X
b1000 c
b111 d
b1000 e
b111 i
#400000
0!
0*
#405000
1!
b1000 %
b1000 '
b10 )
1*
b10 +
01
15
16
19
b111 ;
b1 G
b1000 I
b1000 N
b1000 Q
b1 R
b10 S
b10000000 X
b1000 c
b1000 e
b1000 f
b1000 l
#410000
0!
0*
#415000
1!
b1000 $
b1001 &
b100 )
1*
b100 +
11
05
06
09
b101 ;
0C
0E
0F
b10 G
b1000 M
b1001 P
b10 R
b100 S
b1000 T
b0 U
0W
b100000 X
b1000 c
b1001 k
#420000
0!
0*
#425000
1!
b1000 )
1*
b1000 +
01
b0 ;
b11 G
b0 I
b11 R
b1000 S
b0 X
0Y
0_
0`
b0 c
b0 e
#430000
0!
0*
#435000
1!
b10000 )
1*
b10000 +
13
19
0:
b111 ;
b100 G
b1000 I
b100 R
b10000 S
b10000000 X
0Y
0_
0`
b1000 c
b1000 e
b1000 l
#440000
0!
0*
#445000
1!
b1000 #
b100000 )
1*
b100000 +
1.
03
17
09
0:
b0 ;
1<
0=
0>
b101 G
b0 H
b0 I
b1000 L
b101 R
b100000 S
b0 X
b0 c
b0 e
b0 i
b1000 j
#450000
0!
0*
#455000
1!
b0 "
b1 )
1*
b1 +
0.
11
07
b10 ;
0<
0=
0>
b0 G
b1001 I
b0 K
b0 R
b1 S
b100 X
b1001 c
b0 d
b1001 e
b0 i
#460000
0!
0*
#465000
1!
b1001 %
b1001 '
b10 )
1*
b10 +
01
15
16
19
b111 ;
b1 G
b1001 I
b1001 N
b1001 Q
b1 R
b10 S
b10000000 X
b1001 c
b1001 e
b1001 f
b1001 l
#470000
0!
0*
#475000
1!
b1001 $
b1010 &
b100 )
1*
b100 +
11
05
06
09
b101 ;
0E
b10 G
b1001 M
b1010 P
b10 R
b100 S
b1001 T
b0 U
0W
b100000 X
b1001 c
b1010 k
#480000
0!
0*
#485000
1!
b1000 )
1*
b1000 +
01
b0 ;
b11 G
b0 I
b11 R
b1000 S
b0 X
0Y
0_
0`
b0 c
b0 e
#490000
0!
0*
#495000
1!
b10000 )
1*
b10000 +
13
19
0:
b111 ;
b100 G
b1001 I
b100 R
b10000 S
b10000000 X
0Y
0_
0`
b1001 c
b1001 e
b1001 l
#500000
0!
0*
#505000
1!
b1001 #
b100000 )
1*
b100000 +
1.
03
17
09
0:
b0 ;
1<
0=
0>
b101 G
b0 I
b1001 L
b101 R
b100000 S
b0 X
b0 c
b0 e
b0 i
b1001 j
#510000
0!
0*
#515000
1!
b1 )
1*
b1 +
0.
11
07
b10 ;
0<
0=
0>
b0 G
b1010 I
b0 R
b1 S
b100 X
b1010 c
b1010 e
b0 i
#520000
0!
0*
#525000
1!
b11011 %
b1010 '
b10 )
1*
b10 +
01
15
16
19
b111 ;
b1 G
b11011 I
b11011 N
b1010 Q
b1 R
b10 S
b10000000 X
b11011 c
b1011 e
b1010 f
b11011 l
#530000
0!
0*
#535000
1!
b11011 $
b1011 &
b100 )
1*
b100 +
b10 ,
11
05
06
09
b101 ;
0<
0=
0F
b10 G
b11011 M
b1011 P
b10 R
b100 S
b11011 T
b1 U
b10 V
0W
b100000 X
b11011 c
b1011 k
#540000
0!
0*
#545000
1!
b1011 '
b1000 )
1*
b1000 +
01
b0 ;
b11 G
b0 I
b1011 Q
b11 R
b1000 S
b0 X
0Y
0_
0`
b0 c
b0 e
b1011 f
#550000
0!
0*
#555000
1!
b1011 %
b10000 )
1*
b10000 +
13
19
0:
b111 ;
b100 G
b1011 I
b1011 N
b100 R
b10000 S
b10000000 X
0Y
0_
0`
b1011 c
b1011 e
b1011 l
#560000
0!
0*
#565000
1!
b1011 #
0(
b100000 )
1*
b100000 +
1.
03
17
09
0:
b0 ;
0<
1=
0>
b101 G
b1011 H
b0 I
b1011 L
0O
b101 R
b100000 S
b0 X
b0 c
b0 e
0h
b1011 i
b1011 j
#570000
0!
0*
#575000
1!
b1011 "
b1 )
1*
b1 +
0.
11
07
b10 ;
0<
0=
0>
b0 G
b1011 H
b1011 I
b1011 K
b0 R
b1 S
b100 X
b1011 c
b1011 d
b1011 e
0h
b1011 i
#580000
0!
0*
#585000
1!
b10 )
1*
b10 +
01
15
16
19
b111 ;
b1 G
b1 R
b10 S
b10000000 X
b1011 c
b1011 l
#590000
0!
0*
#595000
1!
b1011 $
b1100 &
b100 )
1*
b100 +
b1 ,
11
05
06
09
b101 ;
0<
0=
b10 G
b1011 M
b1100 P
b10 R
b100 S
b1011 T
b0 U
b1 V
0W
b100000 X
b1011 c
b1100 k
#600000
0!
0*
#605000
1!
b1000 )
1*
b1000 +
01
b0 ;
b11 G
b0 I
b11 R
b1000 S
b0 X
0Y
0_
0`
b0 c
b0 e
#610000
0!
0*
#615000
1!
b10000 )
1*
b10000 +
13
19
0:
b111 ;
b100 G
b1011 I
b100 R
b10000 S
b10000000 X
0Y
0_
0`
b1011 c
b1011 e
b1011 l
#620000
0!
0*
#625000
1!
b100000 )
1*
b100000 +
1.
03
17
09
0:
b0 ;
1<
0=
0>
b101 G
b0 I
b101 R
b100000 S
b0 X
b0 c
b0 e
b1011 i
#630000
0!
0*
#635000
1!
b1 )
1*
b1 +
0.
11
07
b10 ;
0<
0=
0>
b0 G
b1100 I
b0 R
b1 S
b100 X
b1100 c
b1100 e
b1011 i
#640000
0!
0*
#645000
1!
b11100 %
b1100 '
b10 )
1*
b10 +
01
15
16
19
b111 ;
b1 G
b11100 I
b11100 N
b1100 Q
b1 R
b10 S
b10000000 X
b11100 c
b1100 e
b1100 f
b11100 l
#650000
0!
0*
#655000
1!
b11100 $
b1101 &
b100 )
1*
b100 +
b10 ,
11
05
06
09
b101 ;
0<
0=
0C
0E
0F
b10 G
b11100 M
b1101 P
b10 R
b100 S
b11100 T
b1 U
b10 V
0W
b100000 X
b11100 c
b1101 k
#660000
0!
0*
#665000
1!
b1000 )
1*
b1000 +
01
b0 ;
b11 G
b0 I
b11 R
b1000 S
b0 X
0Y
0_
0`
b0 c
b0 e
#670000
0!
0*
#675000
1!
b10000 )
1*
b10000 +
13
19
0:
b111 ;
b100 G
b11100 I
b100 R
b10000 S
b10000000 X
0Y
0_
0`
b11100 c
b1100 e
b11100 l
#680000
0!
0*
#685000
1!
b11100 #
b100000 )
1*
b100000 +
1.
03
17
09
0:
b0 ;
0<
1=
0>
b101 G
b100111 H
b0 I
b11100 L
b101 R
b100000 S
b0 X
b0 c
b0 e
0h
b100111 i
b11100 j
#690000
0!
0*
#695000
1!
b100111 "
b1 )
1*
b1 +
0.
11
07
b10 ;
0<
0=
0>
b0 G
b100111 H
b1101 I
b100111 K
b0 R
b1 S
b100 X
b1101 c
b100111 d
b1101 e
0h
b100111 i
#700000
0!
0*
#705000
1!
b1101 %
b1101 '
b10 )
1*
b10 +
01
15
16
19
b111 ;
b1 G
b1101 I
b1101 N
b1101 Q
b1 R
b10 S
b10000000 X
b1101 c
b1101 e
b1101 f
b1101 l
#710000
0!
0*
#715000
1!
b1101 $
b1110 &
b100 )
1*
b100 +
b1 ,
11
05
06
09
b101 ;
0<
0=
0E
b10 G
b1101 M
b1110 P
b10 R
b100 S
b1101 T
b0 U
b1 V
0W
b100000 X
b1101 c
b1110 k
#720000
0!
0*
#725000
1!
b1000 )
1*
b1000 +
01
b0 ;
b11 G
b0 I
b11 R
b1000 S
b0 X
0Y
0_
0`
b0 c
b0 e
#730000
0!
0*
#735000
1!
b10000 )
1*
b10000 +
13
19
0:
b111 ;
b100 G
b1101 I
b100 R
b10000 S
b10000000 X
0Y
0_
0`
b1101 c
b1101 e
b1101 l
#740000
0!
0*
#745000
1!
b1101 #
b100000 )
1*
b100000 +
1.
03
17
09
0:
b0 ;
1<
0=
0>
b101 G
b101 H
b0 I
b1101 L
b101 R
b100000 S
b0 X
b0 c
b0 e
b101 i
b1101 j
#750000
0!
0*
#755000
1!
b101 "
b1 )
1*
b1 +
0.
11
07
b10 ;
0<
0=
0>
b0 G
b1110 I
b101 K
b0 R
b1 S
b100 X
b1110 c
b101 d
b1110 e
b101 i
#760000
0!
0*
#765000
1!
b1110 %
b1110 '
b10 )
1*
b10 +
01
15
16
19
b111 ;
b1 G
b1110 I
b1110 N
b1110 Q
b1 R
b10 S
b10000000 X
b1110 c
b1110 e
b1110 f
b1110 l
#770000
0!
0*
#775000
1!
b1110 $
b1111 &
b100 )
1*
b100 +
11
05
06
09
b101 ;
0E
0F
b10 G
b1110 M
b1111 P
b10 R
b100 S
b1110 T
b0 U
0W
b100000 X
b1110 c
b1111 k
#780000
0!
0*
#785000
1!
b1000 )
1*
b1000 +
01
b0 ;
b11 G
b0 I
b11 R
b1000 S
b0 X
0Y
0_
0`
b0 c
b0 e
#790000
0!
0*
#795000
1!
b10000 )
1*
b10000 +
13
19
0:
b111 ;
b100 G
b1110 I
b100 R
b10000 S
b10000000 X
0Y
0_
0`
b1110 c
b1110 e
b1110 l
#800000
0!
0*
#805000
1!
b1110 #
b100000 )
1*
b100000 +
1.
03
17
09
0:
b0 ;
1<
0=
0>
b101 G
b100 H
b0 I
b1110 L
b101 R
b100000 S
b0 X
b0 c
b0 e
b100 i
b1110 j
#810000
0!
0*
#815000
1!
b100 "
b1 )
1*
b1 +
0.
11
07
b10 ;
0<
0=
0>
b0 G
b1111 I
b100 K
b0 R
b1 S
b100 X
b1111 c
b100 d
b1111 e
b100 i
#820000
0!
0*
#825000
1!
b1111 %
b1111 '
b10 )
1*
b10 +
01
15
16
19
b111 ;
b1 G
b1111 I
b1111 N
b1111 Q
b1 R
b10 S
b10000000 X
b1111 c
b1111 e
b1111 f
b1111 l
#830000
0!
0*
#835000
1!
b1111 $
b0 &
b100 )
1*
b100 +
11
05
06
09
b101 ;
0E
b10 G
b1111 M
b0 P
b10 R
b100 S
b1111 T
b0 U
0W
b100000 X
b1111 c
b0 k
#840000
0!
0*
#845000
1!
b1000 )
1*
b1000 +
01
b0 ;
b11 G
b0 I
b11 R
b1000 S
b0 X
0Y
0_
0`
b0 c
b0 e
#850000
0!
0*
#855000
1!
b10000 )
1*
b10000 +
13
19
0:
b111 ;
b100 G
b1111 I
b100 R
b10000 S
b10000000 X
0Y
0_
0`
b1111 c
b1111 e
b1111 l
#860000
0!
0*
#865000
1!
b1111 #
b100000 )
1*
b100000 +
1.
03
17
09
0:
b0 ;
1<
0=
0>
b101 G
b0 I
b1111 L
b101 R
b100000 S
b0 X
b0 c
b0 e
b100 i
b1111 j
#870000
0!
0*
#875000
1!
b1 )
1*
b1 +
0.
11
07
b10 ;
0<
0=
0>
b0 G
b0 R
b1 S
b100 X
b0 c
b100 i
#880000
0!
0*
#885000
1!
b1100 %
b0 '
b10 )
1*
b10 +
01
15
16
19
b111 ;
b1 G
b1100 I
b1100 N
b0 Q
b1 R
b10 S
b10000000 X
b1100 c
b1100 e
b0 f
b1100 l
#890000
0!
0*
#895000
1!
b1100 $
b1 &
b100 )
1*
b100 +
11
05
06
09
b101 ;
0E
0F
b10 G
b1100 M
b1 P
b10 R
b100 S
b1100 T
b0 U
0W
b100000 X
b1100 c
b1 k
#900000
0!
0*
#905000
1!
b1100 '
b1000 )
1*
b1000 +
01
b0 ;
b11 G
b0 I
b1100 Q
b11 R
b1000 S
b0 X
0Y
0_
0`
b0 c
b0 e
b1100 f
#910000
0!
0*
#915000
1!
b11100 %
b10000 )
1*
b10000 +
13
19
0:
b111 ;
b100 G
b11100 I
b11100 N
b100 R
b10000 S
b10000000 X
0Y
0_
0`
b11100 c
b1100 e
b11100 l
#920000
0!
0*
#925000
1!
b11100 #
b100000 )
1*
b100000 +
1.
03
17
09
0:
b0 ;
1<
0=
0>
b101 G
b0 I
b11100 L
b101 R
b100000 S
b0 X
b0 c
b0 e
b100 i
b11100 j
#930000
0!
0*
